<?xml version="1.0" encoding="UTF-8" standalone="no"?><svg xmlns="http://www.w3.org/2000/svg" xmlns:xlink="http://www.w3.org/1999/xlink" contentScriptType="application/ecmascript" contentStyleType="text/css" height="1214px" preserveAspectRatio="none" style="width:1162px;height:1214px;" version="1.1" viewBox="0 0 1162 1214" width="1162px" zoomAndPan="magnify"><defs/>
<rect style="color:#000000;overflow:visible;fill:#ffffff;stroke:none;" id="page" width="1162" height="1214" x="0" y="0" />
<g><text fill="#888888" font-family="sans-serif" font-size="20" lengthAdjust="spacingAndGlyphs" textLength="190" x="936" y="21.38">version: 30.06.2022</text><text fill="#000000" font-family="sans-serif" font-size="36" lengthAdjust="spacingAndGlyphs" textLength="382" x="372" y="65.7237">Docker Example - Plan</text><!--MD5=[6114188582d9c307b7d6c5cb22ef7e5b]
cluster Local Host--><polygon fill="#90EE90" points="162,108.2717,182,88.2717,1118,88.2717,1118,1171.2717,1098,1191.2717,162,1191.2717,162,108.2717" style="stroke: #000000; stroke-width: 3.0;"/><line style="stroke: #000000; stroke-width: 3.0;" x1="1098" x2="1118" y1="108.2717" y2="88.2717"/><line style="stroke: #000000; stroke-width: 3.0;" x1="162" x2="1098" y1="108.2717" y2="108.2717"/><line style="stroke: #000000; stroke-width: 3.0;" x1="1098" x2="1098" y1="108.2717" y2="1191.2717"/><text fill="#000000" font-family="sans-serif" font-size="28" font-weight="bold" lengthAdjust="spacingAndGlyphs" textLength="146" x="559" y="144.2035">Local Host</text><!--MD5=[d80e30acdd033a981e169a5c1d9f9531]
cluster Docker-Container--><rect fill="#FFA500" height="565" style="stroke: #000000; stroke-width: 3.0;" width="808" x="262" y="190.2717"/><rect fill="#FFA500" height="20" style="stroke: #000000; stroke-width: 3.0;" width="30" x="1030" y="200.2717"/><rect fill="#FFA500" height="4" style="stroke: #000000; stroke-width: 3.0;" width="8" x="1026" y="204.2717"/><rect fill="#FFA500" height="4" style="stroke: #000000; stroke-width: 3.0;" width="8" x="1026" y="212.2717"/><text fill="#000000" font-family="sans-serif" font-size="28" font-weight="bold" lengthAdjust="spacingAndGlyphs" textLength="244" x="544" y="246.2035">Docker-Container</text><!--MD5=[351a44387832c1b720717d603d033c63]
cluster f_h--><polygon fill="#ADD8E6" points="736,909.2717,876,909.2717,890,959.4075,1054,959.4075,1054,1127.2717,736,1127.2717,736,909.2717" style="stroke: #000000; stroke-width: 3.0;"/><line style="stroke: #000000; stroke-width: 3.0;" x1="736" x2="890" y1="959.4075" y2="959.4075"/><text fill="#000000" font-family="sans-serif" font-size="28" font-weight="bold" lengthAdjust="spacingAndGlyphs" textLength="128" x="744" y="943.2035">./website</text><!--MD5=[392caab79682d89e995f480a208d644f]
entity i_h--><ellipse cx="212" cy="315.2717" fill="#FEFECE" rx="16" ry="16" style="stroke: #A80036; stroke-width: 4.0;"/><text fill="#000000" font-family="sans-serif" font-size="28" lengthAdjust="spacingAndGlyphs" textLength="54" x="180" y="379.2035">Port</text><text fill="#000000" font-family="sans-serif" font-size="28" lengthAdjust="spacingAndGlyphs" textLength="64" x="180" y="417.3394">8080</text><!--MD5=[f83ae91a690dfc657e1c5fbbd818f13d]
entity a--><polygon fill="#FEFECE" points="426,286.2717,446,266.2717,770,266.2717,770,344.4075,750,364.4075,426,364.4075,426,286.2717" style="stroke: #000000; stroke-width: 3.0;"/><line style="stroke: #000000; stroke-width: 3.0;" x1="750" x2="770" y1="286.2717" y2="266.2717"/><line style="stroke: #000000; stroke-width: 3.0;" x1="426" x2="750" y1="286.2717" y2="286.2717"/><line style="stroke: #000000; stroke-width: 3.0;" x1="750" x2="750" y1="286.2717" y2="364.4075"/><text fill="#000000" font-family="sans-serif" font-size="28" lengthAdjust="spacingAndGlyphs" textLength="264" x="456" y="336.2035">Apache Web-Server</text><!--MD5=[8e9b2d9d80e066cced8e5d90e9bdea61]
entity c--><polygon fill="#FEFECE" points="488,582.2717,488,660.4075,708,660.4075,708,602.2717,688,582.2717,488,582.2717" style="stroke: #000000; stroke-width: 3.0;"/><path d="M688,582.2717 L688,602.2717 L708,602.2717 " fill="#FEFECE" style="stroke: #000000; stroke-width: 3.0;"/><text fill="#000000" font-family="sans-serif" font-size="28" lengthAdjust="spacingAndGlyphs" textLength="180" x="508" y="632.2035">apache2.conf</text><!--MD5=[ebe89b9a6da626ef18d200c6575c8a21]
entity f_c--><polygon fill="#FEFECE" points="778,560.2717,870,560.2717,884,602.2717,1038,602.2717,1038,682.5433,778,682.5433,778,560.2717" style="stroke: #000000; stroke-width: 3.0;"/><line style="stroke: #000000; stroke-width: 3.0;" x1="778" x2="884" y1="602.2717" y2="602.2717"/><text fill="#000000" font-family="sans-serif" font-size="28" lengthAdjust="spacingAndGlyphs" textLength="200" x="798" y="646.2035">/var/www/html</text><!--MD5=[beca4093939b3ee0a07693a59ffab134]
entity i_c--><ellipse cx="356" cy="621.2717" fill="#FEFECE" rx="16" ry="16" style="stroke: #A80036; stroke-width: 4.0;"/><text fill="#000000" font-family="sans-serif" font-size="28" lengthAdjust="spacingAndGlyphs" textLength="94" x="309" y="685.2035">Port 80</text><text fill="#000000" font-family="sans-serif" font-size="28" lengthAdjust="spacingAndGlyphs" textLength="68" x="309" y="723.3394">HTTP</text><!--MD5=[e4d60a0f80aa875b12d9e29be11d2b5d]
entity index.html--><polygon fill="#FEFECE" points="822,1001.2717,822,1079.4075,1006,1079.4075,1006,1021.2717,986,1001.2717,822,1001.2717" style="stroke: #000000; stroke-width: 3.0;"/><path d="M986,1001.2717 L986,1021.2717 L1006,1021.2717 " fill="#FEFECE" style="stroke: #000000; stroke-width: 3.0;"/><text fill="#000000" font-family="sans-serif" font-size="28" lengthAdjust="spacingAndGlyphs" textLength="144" x="842" y="1051.2035">index.html</text><!--MD5=[7d46d6cd919e02e6168a09ad91eae8b4]
entity u--><ellipse cx="66" cy="268.2717" fill="#FEFECE" rx="32" ry="32" style="stroke: #A80036; stroke-width: 3.0;"/><path d="M66,308.2717 C74,308.2717 80,308.2717 88,300.2717 C104,300.2717 120,316.2717 120,332.2717 L120,340.2717 C120,348.2717 112,356.2717 104,356.2717 L28,356.2717 C20,356.2717 12,348.2717 12,340.2717 L12,332.2717 C12,316.2717 28,300.2717 44,300.2717 C52,308.2717 58,308.2717 66,308.2717 " fill="#FEFECE" style="stroke: #A80036; stroke-width: 3.0;"/><text fill="#000000" font-family="sans-serif" font-size="28" lengthAdjust="spacingAndGlyphs" textLength="62" x="35" y="389.2035">User</text><!--MD5=[d6047f197d3927fefc7f7c2751c9df28]
link a to c--><path d="M598,364.4517 C598,420.9917 598,515.1517 598,571.8117 " fill="none" id="a-to-c" style="stroke: #A80036; stroke-width: 2.0; stroke-dasharray: 7.0,7.0;"/><polygon fill="#A80036" points="598,581.9317,606,563.9317,598,571.9317,590,563.9317,598,581.9317" style="stroke: #A80036; stroke-width: 2.0;"/><!--MD5=[cd9de01c32f93c6c9b4f56413aae817b]
link a to f_c--><path d="M646.44,364.4517 C698.26,414.9517 780.9,495.4517 839.4,552.4317 " fill="none" id="a-to-f_c" style="stroke: #A80036; stroke-width: 2.0; stroke-dasharray: 7.0,7.0;"/><polygon fill="#A80036" points="847.12,559.9717,839.7897,541.6887,839.9497,553.0013,828.6371,553.1613,847.12,559.9717" style="stroke: #A80036; stroke-width: 2.0;"/><!--MD5=[78351c09a031b5a7125384362ebe2c5b]
link f_c to f_h--><path d="M876.34,682.4117 C850.28,732.9917 813.86,808.3517 790,877.2717 C787.0875,885.6842 784.3231,894.4201 781.7137,903.2778 C781.3875,904.385 781.0638,905.4941 780.7425,906.6047 C780.5818,907.1601 780.4217,907.7157 780.2623,908.2718 C780.1826,908.5498 780.103,908.8279 780.0236,909.106 " fill="none" id="f_c-f_h" style="stroke: #A80036; stroke-width: 2.0;"/><text fill="#000000" font-family="sans-serif" font-size="26" lengthAdjust="spacingAndGlyphs" textLength="54" x="840" y="817.0657">bind</text><text fill="#000000" font-family="sans-serif" font-size="26" lengthAdjust="spacingAndGlyphs" textLength="82" x="826" y="852.4777">mount</text><!--MD5=[422480b6becf679f1b890119b10901af]
link a to i_c--><path d="M560.18,364.4517 C504.88,433.4717 404.66,558.5517 369.02,603.0317 " fill="none" id="a-i_c" style="stroke: #A80036; stroke-width: 2.0;"/><!--MD5=[df998ef05404f49f8609d2c30d467b2a]
link i_h to i_c--><path d="M219.74,333.5117 C244.74,385.9517 323.16,550.4117 348.22,602.9517 " fill="none" id="i_h-i_c" style="stroke: #A80036; stroke-width: 2.0;"/><!--MD5=[ef0cd42bed7a2f57de5cd6bbd0325e12]
link u to i_h--><path d="M123.04,315.2717 C143.16,315.2717 163.28,315.2717 183.4,315.2717 " fill="none" id="u-to-i_h" style="stroke: #A80036; stroke-width: 2.0;"/><polygon fill="#A80036" points="193.92,315.2717,175.92,307.2717,183.92,315.2717,175.92,323.2717,193.92,315.2717" style="stroke: #A80036; stroke-width: 2.0;"/><!--MD5=[77e7ca98b46a36ccf53ff6f76e7b364a]
@startuml

skinparam shadowing false
scale 2

title: Docker Example - Plan
header version: %date("dd.MM.yyyy")

skinparam actorStyle awesome

node "Local Host" #lightgreen {
    component "Docker-Container" #orange {
        node "Apache Web-Server" as a
        file "apache2.conf" as c
        folder "/var/www/html" as f_c
        interface "Port 80\nHTTP" as i_c
        a   ..>     c
        a   ..>     f_c
    }
    interface "Port\n8080" as i_h
    folder "./website" as f_h #lightblue {
        file "index.html"
    }
    f_c     - -      f_h     : bind\nmount
    a       - -      i_c
    i_h     - -      i_c
}
actor "User" as u
u       -r->     i_h

@enduml

@startuml

skinparam shadowing false
scale 2

title: Docker Example - Plan
header version: 30.06.2022

skinparam actorStyle awesome

node "Local Host" #lightgreen {
    component "Docker-Container" #orange {
        node "Apache Web-Server" as a
        file "apache2.conf" as c
        folder "/var/www/html" as f_c
        interface "Port 80\nHTTP" as i_c
        a   ..>     c
        a   ..>     f_c
    }
    interface "Port\n8080" as i_h
    folder "./website" as f_h #lightblue {
        file "index.html"
    }
    f_c     - -      f_h     : bind\nmount
    a       - -      i_c
    i_h     - -      i_c
}
actor "User" as u
u       -r->     i_h

@enduml

PlantUML version 1.2020.16(Sun Aug 23 22:20:43 CEST 2020)
(GPL source distribution)
Java Runtime: OpenJDK Runtime Environment
JVM: OpenJDK 64-Bit Server VM
Default Encoding: UTF-8
Language: en
Country: GB
--></g></svg>
