<?xml version="1.0" encoding="UTF-8" standalone="no"?>
<!-- Created with Inkscape (http://www.inkscape.org/) -->

<svg
   width="70.082817mm"
   height="59.011047mm"
   viewBox="0 0 70.082817 59.011047"
   version="1.1"
   id="svg5"
   inkscape:version="1.2.1 (9c6d41e410, 2022-07-14, custom)"
   sodipodi:docname="head_middle.svg"
   xmlns:inkscape="http://www.inkscape.org/namespaces/inkscape"
   xmlns:sodipodi="http://sodipodi.sourceforge.net/DTD/sodipodi-0.dtd"
   xmlns:xlink="http://www.w3.org/1999/xlink"
   xmlns="http://www.w3.org/2000/svg"
   xmlns:svg="http://www.w3.org/2000/svg">
  <sodipodi:namedview
     id="namedview7"
     pagecolor="#ffffff"
     bordercolor="#999999"
     borderopacity="1"
     inkscape:showpageshadow="0"
     inkscape:pageopacity="0"
     inkscape:pagecheckerboard="0"
     inkscape:deskcolor="#d1d1d1"
     inkscape:document-units="mm"
     showgrid="false"
     inkscape:zoom="1.6819304"
     inkscape:cx="122.18104"
     inkscape:cy="122.18104"
     inkscape:window-width="1920"
     inkscape:window-height="1080"
     inkscape:window-x="0"
     inkscape:window-y="1080"
     inkscape:window-maximized="1"
     inkscape:current-layer="g1866"
     showguides="false" />
  <defs
     id="defs2">
    <linearGradient
       inkscape:collect="always"
       id="linearGradient1830">
      <stop
         style="stop-color:#ffe300;stop-opacity:1;"
         offset="0"
         id="stop1826" />
      <stop
         style="stop-color:#ffe900;stop-opacity:0;"
         offset="1"
         id="stop1828" />
    </linearGradient>
    <linearGradient
       inkscape:collect="always"
       id="linearGradient1342">
      <stop
         style="stop-color:#ffffff;stop-opacity:1"
         offset="0"
         id="stop1340" />
      <stop
         style="stop-color:#f6f524;stop-opacity:1;"
         offset="0.89064068"
         id="stop1435" />
      <stop
         style="stop-color:#d4d42b;stop-opacity:1;"
         offset="1"
         id="stop1338" />
    </linearGradient>
    <radialGradient
       inkscape:collect="always"
       xlink:href="#linearGradient1342"
       id="radialGradient1344"
       cx="92.694298"
       cy="104.60618"
       fx="108.24801"
       fy="88.789726"
       r="28.058268"
       gradientUnits="userSpaceOnUse"
       gradientTransform="matrix(1.0282893,0,0,1,-2.6222561,0)" />
    <radialGradient
       inkscape:collect="always"
       xlink:href="#linearGradient1830"
       id="radialGradient1832"
       cx="93.299065"
       cy="90.09861"
       fx="93.299065"
       fy="90.09861"
       r="35.173698"
       gradientUnits="userSpaceOnUse"
       gradientTransform="matrix(1,0,0,0.68485003,-0.31561719,32.369688)" />
  </defs>
  <g
     inkscape:label="Layer 1"
     inkscape:groupmode="layer"
     id="layer1"
     transform="translate(-57.942036,-70.075613)">
    <g
       id="g1718"
       transform="translate(-39.687496)">
      <path
         id="path1714"
         style="overflow:visible;fill:#ffffff;stroke:#000000;stroke-width:0.264583px;stop-color:#000000"
         d="m 91.255931,94.742744 a 7.035388,7.035388 0 0 1 -7.035388,7.035386 7.035388,7.035388 0 0 1 -7.035388,-7.035386 7.035388,7.035388 0 0 1 7.035388,-7.035388 7.035388,7.035388 0 0 1 7.035388,7.035388 z" />
      <circle
         style="color:#000000;overflow:visible;fill:#000000;fill-opacity:1;stroke:#000000;stroke-width:0.264583px;stop-color:#000000"
         id="circle1716"
         cx="84.46537"
         cy="94.87326"
         r="2.45906" />
    </g>
    <g
       id="g1866">
      <ellipse
         style="color:#000000;overflow:visible;fill:url(#radialGradient1832);fill-opacity:1;stroke:none;stroke-width:0.218957px;stop-color:#000000"
         id="path1816"
         cx="92.983444"
         cy="94.073723"
         rx="35.041409"
         ry="23.99811" />
      <path
         id="path254"
         style="overflow:visible;fill:url(#radialGradient1344);stroke:#000000;stroke-width:0.264583px;stop-color:#000000"
         d="m 121.41403,106.72285 c 0,15.42309 -12.68791,22.23152 -28.110998,22.23152 -15.423088,0 -27.740952,-6.80843 -27.740955,-22.23152 -2e-6,-15.423091 12.502884,-27.925978 27.925975,-27.925979 15.423088,-10e-7 27.925978,12.502886 27.925978,27.925979 z"
         sodipodi:nodetypes="sssss" />
      <path
         style="fill:none;fill-rule:evenodd;stroke:#000000;stroke-width:0.264583px;stroke-linecap:butt;stroke-linejoin:miter;stroke-opacity:1"
         d="m 72.336867,111.00725 c 13.546029,0.88823 29.879603,3.11638 42.971653,3.74963"
         id="path1784"
         sodipodi:nodetypes="cc" />
      <g
         id="g1814"
         transform="translate(0.5652285)">
        <g
           id="g1718-3"
           transform="translate(0.01880895,-0.32284027)">
          <path
             id="path1714-6"
             style="overflow:visible;fill:#ffffff;stroke:#000000;stroke-width:0.264583px;stop-color:#000000"
             d="m 91.255931,94.742744 a 7.035388,7.035388 0 0 1 -7.035388,7.035386 7.035388,7.035388 0 0 1 -7.035388,-7.035386 7.035388,7.035388 0 0 1 7.035388,-7.035388 7.035388,7.035388 0 0 1 7.035388,7.035388 z" />
          <circle
             style="color:#000000;overflow:visible;fill:#000000;fill-opacity:1;stroke:#000000;stroke-width:0.264583px;stop-color:#000000"
             id="circle1716-7"
             cx="84.46537"
             cy="94.87326"
             r="2.45906" />
        </g>
        <use
           x="0"
           y="0"
           xlink:href="#g1718-3"
           id="use3595"
           transform="translate(17.072123)" />
      </g>
    </g>
  </g>
</svg>
